HW/sims/.Xil/Vivado-6736-DESKTOP-1UDCE0K/hw_ila_data_1/zip_work/waveform.vcd
$date
        2022-Oct-17 13:27:11
$end
$version
        Vivado v2022.1 (64-bit)
$end
$timescale
        1ps
$end
$scope module dut $end
$var reg 128 " rx_test_i/system_ila_2/inst/net_slot_0_axis_tdata [127:0] $end
$var reg 16 D" rx_test_i/system_ila_2/inst/net_slot_0_axis_tkeep [15:0] $end
$var reg 1 T" rx_test_i/system_ila_2/inst/net_slot_0_axis_tvalid $end
$var reg 1 U" rx_test_i/system_ila_2/inst/net_slot_0_axis_tready $end
$var reg 1 V" rx_test_i/system_ila_2/inst/net_slot_0_axis_tlast $end
$var reg 128 W" rx_test_i/system_ila_2/inst/net_slot_1_axis_tdata [127:0] $end
$var reg 16 y# rx_test_i/system_ila_2/inst/net_slot_1_axis_tkeep [15:0] $end
$var reg 1 +$ rx_test_i/system_ila_2/inst/net_slot_1_axis_tvalid $end
$var reg 1 ,$ rx_test_i/system_ila_2/inst/net_slot_1_axis_tready $end
$var reg 1 -$ rx_test_i/system_ila_2/inst/net_slot_1_axis_tlast $end
$var reg 128 .$ rx_test_i/system_ila_2/inst/net_slot_2_axis_tdata [127:0] $end
$var reg 1 P% rx_test_i/system_ila_2/inst/net_slot_2_axis_tvalid $end
$var reg 1 Q% rx_test_i/system_ila_2/inst/net_slot_2_axis_tlast $end
$var reg 128 R% rx_test_i/system_ila_2/inst/net_slot_3_axis_tdata [127:0] $end
$var reg 16 t& rx_test_i/system_ila_2/inst/net_slot_3_axis_tstrb [15:0] $end
$var reg 1 &' rx_test_i/system_ila_2/inst/net_slot_3_axis_tvalid $end
$var reg 1 '' rx_test_i/system_ila_2/inst/net_slot_3_axis_tready $end
$var reg 1 (' rx_test_i/system_ila_2/inst/net_slot_3_axis_tlast $end
$var reg 128 )' rx_test_i/system_ila_2/inst/net_slot_4_axis_tdata [127:0] $end
$var reg 16 K( rx_test_i/system_ila_2/inst/net_slot_4_axis_tstrb [15:0] $end
$var reg 1 [( rx_test_i/system_ila_2/inst/net_slot_4_axis_tvalid $end
$var reg 1 \( rx_test_i/system_ila_2/inst/net_slot_4_axis_tready $end
$var reg 1 ]( rx_test_i/system_ila_2/inst/net_slot_4_axis_tlast $end
$var reg 3 ^( Interface__i1_s0___axi_dma_0_M_AXIS_MM2S_ [2:0] $end
$var reg 3 a( Interface__i1_s1___axis_data_fifo_0_M_AXIS_ [2:0] $end
$var reg 3 d( Interface__i1_s2___tlast_gen_0_m_axis_ [2:0] $end
$var reg 3 g( Interface__i1_s3___cfo_correction_0_m_axis_ [2:0] $end
$var reg 3 j( Interface__i1_s4___axis_data_fifo_1_M_AXIS_ [2:0] $end
$var reg 3 m( T_Channel__i1_s0___axi_dma_0_M_AXIS_MM2S_ [2:0] $end
$var reg 3 p( T_Channel__i1_s1___axis_data_fifo_0_M_AXIS_ [2:0] $end
$var reg 3 s( T_Channel__i1_s2___tlast_gen_0_m_axis_ [2:0] $end
$var reg 3 v( T_Channel__i1_s3___cfo_correction_0_m_axis_ [2:0] $end
$var reg 3 y( T_Channel__i1_s4___axis_data_fifo_1_M_AXIS_ [2:0] $end
$var reg 1 |( _TRIGGER $end
$var reg 1 }( _WINDOW $end
$var reg 1 ~( _GAP $end
$upscope $end
$enddefinitions $end
#0
$dumpvars
b1000000001010000000000000000000000000000000000000000000000000000000000000000000000000000000000000000000 "
b0 D"
0T"
1U"
0V"
b101000100000001000000010000000000000111000100000001001110000000000110111001000110010100000000000000000000010001100101000 W"
b1101111111111111 y#
1+$
0,$
0-$
b101000100000001000000010000000000000111000100000001001110000000000110111001000110101101000000000000000000010001100101000 .$
0P%
0Q%
b10111011100000000000000000000000000 R%
b1000100010001 t&
0&'
1''
0('
b0 )'
b0 K(
0[(
1\(
0](
b11 ^(
b0 a(
b0 d(
b0 g(
b0 j(
b11 m(
b0 p(
b0 s(
b0 v(
b0 y(
0|(
1}(
0~(
$end
#1
b0 "
b101000100000001000000010000000000000111000100000001001110000000000110111001000110010100000000000000000000010001100101000 .$
b0 R%
#3
0+$
1-$
b101000100000001000000010000000000000111000100000001001110000000000110111001000110010100000000000000000000010001100101010 .$
#4
1+$
0-$
b101000100000001000000010000000000000111000100000001001110000000000110111001000110010100000000000000000000010001100101000 .$
#8
b10000000000000000000000000000000000000000000000000000000000000000000000000000000000000000000 "
b101000100000001000000010000000000000111000110000001001110000000000110111001000110010100000000000000000000010001100101000 .$
#9
b1010000000000000000000000000000000000000000000000000000000000000000000000000000000000000000000 "
b101000100000001000000010000000000000111000100000001001110000000000110111001000110010100000000000000000000010001100101000 .$
#10
b0 "
#11
b1000000001010000000000000000000000000000000000000000000000000000000000000000000000000000000000000000000 "
#12
b0 "
#20
b10000000000000000000000000000000000000000000000000000000000000000000000000000000000000000000 "
b101000100000001000000010000000000000111000110000001001110000000000110111001000110010100000000000000000000010001100101000 .$
#21
b0 "
b101000100000001000000010000000000000111000100100100011110000000000110111001000110010100000000000000000000010001100101000 .$
#22
b101000100000001000000010000000000000111000100000001001110000000000110111001000110010100000000000000000000010001100101000 .$
#23
b10000000000000000000000000000000000000000000000000000000000000000000000000000000000000000000 "
b101000100000001000000010000000000000111000110000001001110000000000110111001000110010100000000000000000000010001100101000 .$
#24
b0 "
b101000100000001000000010000000000000111000100000001001110000000000110111001000110010100000000000000000000010001100101000 .$
#26
b101000100000001000000010000000000000111001110000001001110000000000110111001000110010100000000000000000000010001100101000 .$
#27
b101000100000001000000010000000000000111000100000001001110000000000110111001000110010100000000000000000000010001100101100 .$
#28
b101000100000001000000010000000000000111000100000001001110000000000110111001000110010100000000000000000000010001100101000 .$
#29
b10000000000000000000000000000000000000000000000000000000000000000000000000000000000000000000 "
b101000100000001000000010000000000000111000110000001001110000000000110111001000110010100000000000000000000010001100101000 .$
#30
b0 "
b101000100000001000000010000000000000111000100000001001110000000000110111001000110010100000000000000000000010001100101000 .$
#32
b1111111111111111 y#
1,$
b101000100010001100000010000000000000111000100000001001110000000000110111001000110010100000000000000000000010001100101000 .$
1P%
b1 a(
b1 d(
b1 p(
b1 s(
1|(
#33
b1100000100010001100100000000000010100101100100011001000100000000100110111001000110010110000000000010010000010001100101001 W"
b101000100000001000000010000000000000111000100000001001110000000000110111001000110010100000000000010000000010001100101000 .$
0P%
b1111011100000000000000000000000000000000000000000000000000000 R%
b0 d(
b0 s(
#34
b10010111110010001100100000000000010100101100100011000101110000000111110001001000110001100000000000101110100010001100001101 W"
b10010111110000001000100000000000010100101100100011000101100000000100110111001000110010110000000000101010000010001100101101 .$
1P%
b0 R%
b1 d(
b1 s(
#35
b11001110110010001100100010000000110100000100100011000001110000001011001101001000110000111000000010100111010010001100010101 W"
b1100000100010001100100000000000010100101100100011001000110000000111110001001000110001100000000000000110100010001100001001 .$
#36
b100010101110010001111101110000000100110010000100011111100010000001110101001001000101111011100000011111100100010001110111101 W"
b100010101110010001111101110000000110100010000100011111100010000001011001101001000110001101000000011111111010010001101101101 .$
b110111001000010000000000000000000000000000000000101000 R%
#37
b101111110110010001111001011000000111010111000100011110101100000010010000100001000101101111100000000010111100010001110110100 W"
b1010000100010010001111100010000000100110000100110011000001010000001110101001001000101111011100000000010100100010001110111101 .$
b101000100000001000000010000000000000111000100000001001110000000000000101000000100010100000000000000000000010001000000000 R%
#38
b100100101110010001010101001000001111110011000100010101101100000010101011111001000101011111100000101001010100010001011011101 W"
b100100101110010001111101001000000111010011000100010101101100000010010000100001000101101111100000101001111100010001110110101 .$
b100000000 R%
#39
b110101001100010001010000111000001101011111100100010100100000000011000111001001000101001101000000110000001110010001011100010 W"
b101111110110010001010001011000001111110111000100011110101100000010101011111001000101011111100000000000010100010001011011011 .$
b0 R%
#40
b111011111100010001001011101000001111001000000100010011101010000011100010010001000100111011000000111011110010010001011001011 W"
b111011111100010001010011101000001101011000000100010011101000000011000111001001000101000111000000111011001110010001011100011 .$
#41
b1010000000000000000000000000000000000000000000000000000000000000000000000000000000000000000000 "
b100010101100010001010001100000001100110000000100010001101000000011111101010001000100101001000000110101101110010001001000011 W"
b110101001100010001001000111000001111001111100100010100100010000011100010010001000100111011000000110101110010010001011001011 .$
#42
b0 "
b1001011100010000011110001000000111111111000100010111111110000100011000000001000100000110100000100100011000010001001011011 W"
b1001011100000001010110001000001100110111000100010111111100000110111101010001000100101001000000100100101110010001001000011 .$
#43
b1010000000000010000010100000000010000010101000100010110101000000100110010110001000011100000100001101111100000010000111101101 W"
b100010101100010000011001100000000111111000000110010001101110000001011000000001000100000110100000110000011000010001001011101 .$
#44
b1011110100110010000111110011000010001111111000100001100001000000101001101001001000011001010100001010100100010010000110100000 W"
b1011110100110010000110110011000010000010111000100001100001000000101110010110001000011011100100001010100100000010000110111000 .$
#45
b1010101000000010000110111100000010111101000100100001001011100000101100111100001000010101001000001011001001010010000111100010 W"
b11001010100010000111100000000010001111101000100010110101000000100001101001001000011001010100001011001100010010000110100010 .$
#46
b1100011100110010000111110001000010101001000000100001111101000000110000001100001000010000010000001011011110000010000100001010 W"
b1100011100110010000110110001000010111101000001110001111101000000100100111100001000010101001000001011011001010010000111100010 .$
#47
b10000000000000000000000000000000000000000000000000000000000000000000000000000000000000000000 "
b1101010001010010000100100100000011110010111000100001101101010000110011011011001000001011100100001001101001110010000101100010 W"
b1010101000000010000111111100000010101001000100110001001011000000111000001100001000010000010000000101010110000010000100001010 .$
#48
b0 "
b1110000000110010000011101011000011000101101000100000010100000000110110100111001000000110101000000000000000000010001100101010 W"
b1110000000110010111111101011000011110010101000100000010100010000110011011011001000001100000100000000000001110010000101100010 .$
#49
b10000000000000000000000000000000000000000000000000000000000000000000000000000000000000000000 "
b1111110100110010111111011111000011011010010000001000111101110000111001110010001000000000110100001110101111110010000011001101 W"
b1101010001010010000011100100000011000101111000110001101101000000110110100111001000000110101000001110101000000010001100101100 .$
#50
b0 "
b1110100111010001111100110000000011111101110000011111100110000000111100111010000111111011000000001111000010000001101100101000 W"
b1110100111010000111110110000000011011010110000011111100110010000111001110010001000000000110100001111000111110010000011001000 .$
#51
b11100011001100001111110011111000101001010010000011111001101010001000000000000000111110100110100001111011111110001111101100100 W"
b1101111111111111 y#
b1111110100110001111100011111000011111101010000001100111101000000111100111010000111111011000000000001001010000001101100101100 .$
#52
b10001001001010001111110110010000100010111010000011111110111010001000011000011000111101111010100010100100110000001111101000000 W"
b1111111111111111 y#
b10001001001010001111100110010000101001010010000011111110111010000000000000000000111110001001100010100100001001111001100101000 .$
b11010000000000000000000011010010000000000000000000000000000000000000000000000000000000000000000000000000000000000000000000000000 R%
b1010 )'
#53
b10001111000100001111100010001000100001011010100011111011100000001000110000100000111100111111000010101110101010001111101100111 W"
b10110011001100001111110101010000100010111110001011001001101011011000011000011000111101111010100010101110110000001111101000110 .$
b0 R%
b0 )'
#54
b10011101000000001110011010000000100101111010000011110111011100001001001000010000111100000111100010010000100110001111100101001 W"
b10011101000000000101100010000000100001011010000011110111011100001001110000100000111100111111000010010000101010001111101100001 .$
#55
b10011010110110001110001001110000100111011110000011110011110000001001011111110000111011001001100010011010111110001110110110101 W"
b10001111000100001110011010001000100101111010100011111011100100001000001000010000111100000111100000000000100110001111100101101 .$
#56
b11100100000100010001110111011011000100100111010100011101111111010001001110110110000111010001111100010010100010110001110100111010 W"
b10100000100010001110101011011000100111011010100011101111111000001001011111110000111011100110100010010100111110001110110110010 .$
#57
b10101110001010001110101011010000100110010110000011101011111100001010001101011000111001001111000010000100011110001110110111110 W"
b10011010110110001110111001110000100100111110000011110011110010001001110110110000111010001111100010000100010110001110100111110 .$
#58
b10100011101010001111011011100000101111100111000011100111110110001010100011110000111000001110000010001111100000001110100111111 W"
b10100011101010000100000011100000100110010111000011000111110100001010001101011000111001001111000010001111011110001110110111111 .$
#59
b10110011001110001111001010100000101001101100000011000011100110001010111001101000110111001011000010100101101010001111010111111 W"
b10101110001010001111011011010000101111100110000011101011111110001010100011110000111000001110000010001010100000001110100111001 .$
#60
b11111110011010001101111011011000101111110001000011011111001110001011001111000000110110000110000010110010010110001111000111101 W"
b10111110011010001001100011011000101001101001001011011111001110001011111001101000110111101001100010110010101010001111010111101 .$
#61
b1000000000000000000000000000000000000000000000000000000000000000000000000000000000000000000000 "
b10110011100110001101100010010000101111111101000011011010101100001011100100000000110100101111100010111111101010001101110111111 W"
b11100011001110001101111010100000101111110100000011000011100110001010001111000000110110000110000010111111010110001111000111111 .$
#62
b0 "
b10000010111010001100011000001000101101110010100011010110000100001011111000101000110011110011100010110100011100001101100001101 W"
b10000010111010000101100000001000101111111010100011010110000100001011100100000000110100101111100010110100101010001101110111101 .$
#63
b10000000000000000000000000000000000000000000000000000000000000000000000000000000000000000000 "
b10000111101010001100000010010000100110100110100011010001010100001100001100110000110010101001100010100101111110001100110011111 W"
b10110011100110001100011010010000101101110101000011011010101100001011111000101000110011110011100010100000011100001101100001111 .$
#64
b0 "
b10000010101000001100110011110000101111110101000011001100011010001100100000011000110001011011100000100111111100001110101110101 W"
b11000010101000001101111011110000100110100101001011001100011000001100001100110000110010001011000000100111111110001100110011101 .$
#65
b11000101101110001101111000101000110001000101000011001111011010001100110011100000110000001000000011000011101100001100101111110 W"
b10000111101010001100110010010000101111110110100011010001010010001100100000011000110001011011100011000011111100001110101110111 .$
#66
b1000000000010000000000000000000000000000000000000000000000000000000000000000000000000000000000000000000 "
b11011011110110001011100100100000110110101011000011101010010100001101000110010000101110111000100111010001011110001111101111100 W"
b11011011110110000101110100100000110001000011000011101010010110001101110011100000110000001000000111010001101100001100101111100 .$
#67
b0 "
b11011010010100001011111001101000110111100011100010111101010100001101011000011000101101101111100011011001111110001111010111110 W"
b11000101101110001011100000101000110110101101000011101111011100001100000110010000101110111000100010100000011110001111101111110 .$
#68
b11011110100010001010101101101000110100101011000010111111110000001101101010000000101100010001100011010001011010001011010011110 W"
b11011110100010001001000101101000110111100011000010111111110000001101011000011000101101001010100011010001111110001001100101110 .$
#69
b11001000110000001010000011010000110101111111100010110010010100001101111011001000101010110010100011011101111110001010011100111 W"
b11110011010100001010101001101000110100101011100010111101010000001101101010000000101100010001100011011101011010001011010011110 .$
#70
b11101100111100001010111001111000110110111101100010101100110000001110001011110000101001100011100011001001111010001010011110000 W"
b11101100111100000010000001111000110101111101100010101100110000001100111011001000101010110010100011001001111110001010011100000 .$
#71
b11100000111000001011110110110000111111111110100010101111001000001110011011110000101000001010100011101101111110001010110111011 W"
b11001000110000001010111011010000110110111111100010110010010000001111001011110000101001100011100010011000111010001010011110010 .$
#72
b11101100101100001011011111011000111000111100000010100001011000001110101011010000100110101100100011100001111110001011010001000 W"
b11101100101100001001100111011000111111111100000010000001011000001110011011110000101000101111100011100001111110001010110111000 .$
#73
b11111000011100001001100010110000111001111111100010011011100010001110111010001000100101011000100011101101101000001011010111110 W"
b11100000111000001011011110110000111000111110100010101111001000001110101011010000100110101100100011101101111110001011010001110 .$
#74
b11111011111110001000010000100000111110111000000010011101101000001111001000100000100011110001000011111001010100001001010001000 W"
b11111011111110000001100000100000111001111000000010011101101010001111111010001000100101011000100011111001101000001011010111000 .$
#75
b11110111010110001000011000010000111111110110000010010111101000001111010110010000100010010000000011111101101000001000011010101 W"
b11111000011100001000010010110000111110111111100010011011100000001110001000100000100011110001000010101101010100001001010001110 .$
#76
b100110010010110001000110000100000111100110010100010001001100010001111100011011000100000110001000011110000000000001000000010011 W"
b11110010010110001011111000100000111111110010100010001001100000001111010110010000100010001110100011110000101000001000011010011 .$
#77
b11110111000000001111111001011000111101100100000011010011111000001111110000000000011111000110000011111110101110001101111011111 W"
b11011110010110001000110000010000111100110110000010010111101010001111100011011000100000110001000011111110000000001000000010111 .$
#78
b101000000011010001101001110010000111111011011100011110101001000001111111011111000011101101011000011111010010010001111110001011 W"
b101000000011010000101111110010000111101100011100011110101001000001111110000000000011111000110000011111010101110001101111011011 .$
#79
b101000001100000000110110110111001100011001000000001111110110100010000000111010000011100001110100010100001001110000111111001111 W"
b11110111000000001101001001011000111111011100000011110011111000001111111011111000011101101011000010101000010010001111110001111 .$
#80
b11000101111010000110001111010001000011010010100001110000011100010000010010000000011010100011100011100110111000001110011011100 W"
b100000101111010000110100111010001100011001010100001110000011100010000000111010000011100010000000011100110001110000111111001100 .$
#81
b10000000000000000000000000000000000000000000000000000000000000000000000000000000000000000000 "
b100000010001110000110100000101001000001111010000001101010100000010000011100001000011000111010100100000011011000000110010111111 W"
b101000001100000000110001110111001000011010000000001111110110100010000010010000000011010100011100100000011111000001110011011110 .$
#82
b0 "
b100001010100010000111010011001001000001011111100001101011100000010000100101100000010111010010100100000100111000001101111011000 W"
b100001010100010000100000011001001000001111111100001101011100000010000011100001000011000111010100100000100011000000110010111000 .$
#83
b100001100101010000111001101100001000001010010000001100100011100010000101110011000010101101001100100001110010000000111010000111 W"
b100000010001110000111010000101001000001011010000011101010100000010000100101100000010111010010100010100000111000001101111011100 .$
#84
b100001110100110000100100111110001000010011010000001011110010110010000110110100000010100000000000100001101000000000101111010101 W"
b100001110100110000000001111110001000001010010000001011110010100010000101110011000010101111101100100001101010000000001100101101 .$
#85
b100011000011010000100001100001001000011101111000001010111101100010000111110001000010010010101100100001111000100000100100100111 W"
b100010101111110000100100101100001000010011010000001000100011110010000110110100000010100000000000100001111000000000101111010111 .$
#86
b100011010000010000101111111110001000111100010000001001001000000010001000101000000010000101010100100011000110100000100000101111 W"
b100011010000010000100001111110001000011101010000001001001000000010001111110001000010010010101100100011000000100000100100100111 .$
#87
b100010011100000000011111000010001000111111010100001000010110000010001001011001000001110111101100100011010001110000101111100001 W"
b100011000011010000101111100001001000111100111000001010111101000010000000101000000010000101010100100001010110100000100000101001 .$
#88
b100010110110100000011111101000001000100011000000001100011011110010001010000110000001101010010100100010011110100000111011011111 W"
b100010110110100000011101101000001000111111000000001100011011100010001001011001000001110101001100100010011001110000101111100111 .$
#89
b100010111110100000010101011011001000101110011100000111100011100010001010101101000001011111111000100010101011010000011110010100 W"
b100010011100000000011111000010001000100011010100001100010110110010001010000110000001101010010100100010101110100000111011011101 .$
#90
b100010110111010000010000110001001000101101011000000110101110110010001011001111000001001111011000100010011001110000010110001000 W"
b100010110111010000010101110001001000101110011000000110101110100010001010101101000001011111111000100010011011010000011110010000 .$
#91
b100010111111110000011110111101001000101111010000000101111100000010001011101011000001000000010000100010111000110000010000001011 W"
b100010111110100000010000011011001000101101011100000111100011110010001011001111000001001111011000100001010001110000010110001110 .$
#92
b100010000011110000011011001100001000101000011100000100000001000010001100000010000000110011101100100010111101110000011101111000 W"
b100010000011110000000111001100001000101111011100000000000001000010001011101011000001000010011100100010111000110000010000001000 .$
#93
b100010010110100000000111110001001000100101011100000011001010000010001100010100000000100101111100100010000001000000011001000110 W"
b100001110101010000011011111101001000101000010000000101111100000010001100000010000000110011101100100010000101110000011101111110 .$
#94
b100011001000010000000111000101001000110010001000000011010010110010001100100000000000011000001100100011000111010000000111111010 W"
b100011001000010000000111000101001000100101001000000011010010100010001100010100000000100101111100100011000001000000011001000010 .$
#95
b10000000000000000000000000000000000000000000000000000000000000000000000000000000000000000000 "
b100011001010000000000110110111001000110011011100000010011011100010001100100110000000001010011100100011000101010000000010011110 W"
b100010010110100000000111110001001000110010011100000011001010110010001100100000000000011000001100100000010111010000000111111110 .$
#96
b0 "
b100011001001101111101101011110001000110010011111111011100000100010001100101000111111111100101000100001011111010111001010011110 W"
b100011001001101111101001011110001000110011011111111111100000100010001100100110000000001000010000100001011101010000000010011110 .$
#97
b100011001000001111101001111111001000110010001011111110101001010010001100100100111111101110111000100011001001011111111110001101 W"
b100011001010000111101101110111001000110010011100000010011011100010001100101000111111111100101000100011001111010111001010011100 .$
#98
b100011000101001111110110100000001000110011011111111111110110000010001100011010111111100000110100100011001111111111111010001100 W"
b100011000101001010101001100000001000110010011111111111110110010010001100100100111111101110111000100011001001011111111110001100 .$
#99
b100011000000101111110001110101001000110010011111111110111111000010001100001011111111010010010000100011001100011111110101101010 W"
b1101111111111111 y#
b100011001000001111110110111111001000110011001011111110101001000010001100011010111111100000110100100011000111111111111010001010 .$
#100
b100011101011101111111111101001001000111111000111111101001000000010001011110111111111000101011100100011111111011111110001001110 W"
b1111111111111111 y#
b100011101011101111111010101001001000110010000111111101001000000010001100001011111111010101010100100011111100011111001100101110 .$
b1111011111111101010110000000000000000000000000000000010100100000000000001111111100000000 R%
#101
b100011110011111111111010001111001000110101011111111100010101010010001011011101111110110111101100100011111100001111111111101010 W"
b100000001000001111111111110101001000111111011111111110111111000010001011110111111111000101011100100011111111011111110001001010 .$
b10001100001010100010000000000000000010111101000000000011010110 R%
#102
b100010111011011111101111100001001000101111011111111000011010100010001010111110111110101010011100100010111011011111111011010110 W"
b100010111011011000101010100001001000110101011111111000011010110010001011011101111110110111101100100010111100001111111111101110 .$
b100011001001101111101101011110001000110010011111111111100000100010001100100100111101000100001000100011001111000111001010001101 R%
1&'
b1 g(
b1 v(
#103
b100010110011111111100101011110001000101101010011111011100000010010001010011010111110011101010100100010101001001111100111110111 W"
b100011110011111111101111001111001000101111011111111000010101100010001010111110111110101010011100100001000011011111111011010110 .$
b100011001000001111101001111111001000110010001011111110101001010010001100101100111011111110111000100001011001011111011010011110 R%
#104
b10000000000000000000000000000000000000000000000000000000000000000000000000000000000000000000 "
b100010010111011111100000110110001000101011010011111010101110000010001001110000111110001110101100100010110111111111100110000101 W"
b100010010111011111101110110110001000101101010011111010101110010010001010011010111110011010010000100010110001001111100111110101 .$
b100011000101001111110110100000001000110011011111111010111010100010001100001011111101010000011100100011001110011111111101101010 R%
#105
b0 "
b100010001000101111101110101010001000101011010011111001111100000010001001000001111110000000011100100010010010111111100101011101 W"
b100010110011111111100000011110001000101011010011111011100000000010001001110000111110001110101100100010010111111111100110000101 .$
b100011000000101111110001110101001000110010011111111110111111000010001010101011110011000010010000100011001001111111110010001100 R%
b1000001000101100000010110000000110000010100010010000000100010001100101000111111110100101000100001011111010111001010011110 )'
b100010001 K(
1[(
b1 j(
b1 y(
#106
b100000111100011111101011010101001000100111111111111101000010100010001000001101111101110100011000100010001110111111101101110100 W"
b100000111100011000101110010101001000101011111111111101000010100010001001000001111110000000011100100010001010111111100101011100 .$
b100011101011101111111111101001001000111111000111111101001000000010001011011101111100010101011100100011111110011111110111101010 R%
b100011001000101111101101011110001000110010001011111110101001010010001100100100111111101110111000100011001001011111111110001101 )'
b1000100010001 K(
#107
b100000101100001111011100000001001000100011010011110111001001010010000111010011111101100111111000100000111010001111111011101000 W"
b100010001000101111101011101010001000100111010011111101111100100010001000001101111101110100011000100000000110111111101101110010 .$
b100011110011111111111010001111001000110101011111111000010101010010001011110111111011100111101100100011111101011111111001001110 R%
b1000001000111101001101001001000110011011111111110110110000010001100011010111111101000110100100011001111111111111010001100 )'
#108
b100001011100111111010010001101001000011010010111110111011000100010000110010100111101011001010100100001101001001111010101111111 W"
b100001011100111111010001001101001000100011010111110111011000110010000111010011111101100010010000100001101010001111111011101111 .$
b100010111011011111101111100001001000100000000001010101000010100010001010011010111100010101011000100010101011000000000011110111 R%
b100011000100001111110110110100001000110010011111111111111111000010001100001011111111010010010000100011001100011111110100101010 )'
#109
b100001001011001111010001011000001000011100111011110110100100000010000101010000111101001100011000100001111000101111010011111001 W"
b100011100100101111010010000001001000011010010011110111001001100010000110010100111101011001010100100001111001001111010101111001 .$
b100010110011111111100101011110001000101101010011111011100000010010001000000000010000001000010100100000000000011111100000000000 R%
b1000000000010110001100001001000110011000111111100101000000010001011110111111111000101011100100011111111011111110001001110 )'
b1000000000000 K(
0\(
b0 j(
b0 y(
#110
b100001111000011111011100101101001000011111010011110101110000000010000100000111111100111111011100100001000111101111010111001011 W"
b100001111000011000000000101101001000011100010011110101110000000010000101010000111101001100011000100001000000101111010011111011 .$
b100010010111011111100000110110001000101011010011111010101110000010001001000001111100000000001100100010010110101111100101011101 R%
b1000000000010110001100001001000110011000111111100101000000010001011110111111111000101101100100011111100001111111111101010 )'
#111
b100001101110001111011010111110001000011011010011110100111100100010000010111001111100110010010000100001011001111111011001011001 W"
b100001001011001111011100011000001000011111111011110110100100000010000100000111111100111111011100100000010111101111010111001001 .$
b100010001000101111101110101010001000101011010011111101111100000010001001110001111010000100011100100010110001111111100110000101 R%
#112
b100000011110111111000111111111001000001101010011110011001001100010000001100110111100100101110000100011001010101000010000001000 W"
b100000011110111111000010111111001000011011010011110011001001100010000010111001111100110111111000100011001001111111011001011000 .$
b100000111100011111101011010101001000100111111110101000000000000010000111010011111101000101000000000000111110011111101111101000 R%
#113
b111111110111111111000010111111001111111111011111110010010111000010000000001101111100011000110100100000101011011111000101011001 W"
b100001101110001111000111111110001000001101010011110000111100100010000001100110111100100101110000100000101010101000010000001000 .$
b100000101100001111011100000001001000100011010011110111001001010000000000001001110001110110111000100010001010111111111101010100 R%
#114
b11111100000001111000111110011001111110101100011110010100101000001111110110000111100001100010100111011011010001111000011111000 W"
b11111100000001000000010110011001111111111100011110010100101000000101000001101111100011000110100111011011011011111000101011000 .$
b100001011100111111010010001101001000011010010111110111011000100010000101010000111101000100010100100001111000101111110011111001 R%
#115
b11111010111111111101100101010000111111111010111111011110111110001111101001110111100000000011000111111011001001111000111010001 W"
b111111110111111111000111111111001111110101011111110010010111000011010110110000111100001100010100100001010010001111000011111000 .$
b100001001011001111010001011000001000011100111011110110100100000010000110010000111001011001011000100001101011001111010101111111 R%
#116
b11111101100100001110110010101000111111001110111111111000011000001111011100111111011110011111000011111000000001111111111111001 W"
b11111101100101110011110110001000000000100110111111111000011010101101010110010111100000000010000011111000000011111001101101001 .$
b11110001111001011101111010011111001000011110111111111010100101000010000010111001111100010000010100111001011111110100010001011001 R%
#117
b11111000100011110111110011100000111110011000011101111010011000001111001111011111011100111110000011111001001111111111000101101 W"
b11110010101011111101001100001111111111001000010101001011101000001010011100111111011110011111000011111001000001111111111111101 .$
b100001101110001111011010111110001000011011010011110000111100100001111110100011100011110011010000100011001000001111011111101101 R%
#118
b11100110100011110110011010100000111101110111111101111100011110001111000001011111011011011110100011111001010011110110111101101 W"
b11100110100011010111110010100000111110011111111101111100011100001111001111011111011100111110000011111001001111111111000101101 .$
b100000011110111111000111111111001000001101010011110011001001100010000000001101111100010000010000100000101011011000010001011001 R%
#119
b11100010110101110110010111111000111100110100011101110110101000001110110010110111011010000010000011100101101111110110110101000 W"
b11111000100011110110011011100000111101110000011101111010011110001111000001011111011011011110100110011000010011110110111101001 .$
b111111110111111111000010111111001111111111011111110010010111000010000001100111111000001101110100100011001000101111000000000000 R%
#120
b11101101110110111110111111101111000111011111110011101101000111000001110100011100111011000101111000011101001110001110110111111001 W"
b11101110110111110111010101111000111100110110011101101000111000001110110010110111011010000011000011101001101111110110110101001 .$
b11111100000001111000111110011001111110101100011100111100011110001111101001110111100000000010100011111011011011111000111010001 R%
#121
b11101010111101110111010101110000111010111111011101100011110000001110010011110111010111000011100011101101111101110111100110001 W"
b11100010110101110111111111111000111011111100011101110110101000001110100011100111011000101111000011101101110001110110111111001 .$
b11111010111111111101100101010000111111111010111111111110111110001111000000100110000000100011000111111011010001111000011111000 R%
#122
b11110110111001110101110001111000111101111101111101100101101100001110000011100111010101110001000011101001111111110111000001110 W"
b11110110111001000101010001111000111010111101111101000101101100001110010011110111010111000011100011101001111101110111100110110 .$
b11111101100101111101001110001000111111001110111111111000011000001111001111011111001000101011000011111001001101111011100101101 R%
#123
b11110010100001110100101111001000111100111011011101011000010000001101110010101111010100011010100011110101111111110101111001111 W"
b11101010111101110101110101110000111101111111011101100011110100001110000011100111010101110001000010100101111111110111000001000 .$
b11111000100011110111110011100000111110011000011101111010011000001111011100011111011110011110000011111000000001111111111111001 R%
#124
b11011110010011110100010010011000110111111011111101010010111100001101100001010111010011000101000011110001111011110100110111111 W"
b11011110010011110000110010011000111100111011111101010010111100001101110010101111010100000101000011110001111111110110011011111 .$
b11100110100011110110011010100000111101111010011100000101101100001110110010110111001010000001000011100101011100000000010101000 R%
#125
b11011011100101110100110011101000110110111001111101010101111100001101001111011111010001111001100011011101111111110100100001111 W"
b11111010110101110100010111001000110111111011011101011000010100001101100001010111010011000101000011011101111011110100110111111 .$
b11100010110101110110010111111000111100110100011101110110101000001110000000110100000010101010000011101000001111110110111001011 R%
#126
b11000110100111110101110111011000110101110001011101001000100110001100111100111111010000011100000011011000011011110100110110000 W"
b11000110100111010100110111011000110110111001011101001000100100001100001111011111010001111001100011011000111111110100100001000 .$
b11101110110111110111111101111000111011111110011101101000111000001110010011110111000010000011000011101101111111110110100110001 R%
#127
b11000000000101110111111001111000110100000111011101000011100110001100101010000111001111000101000011000110111111110101101001001 W"
b11011011100101110101110011101000110101110001111101010101111110001101111100111111010000011100000010100000011011110100110110000 .$
b11101010111101110111010101110000111010111111011101100011110000001110100011100111011101101011100011101001100001110111111110001 R%
#128
b11001001111001110011111100000000110011100010111101100110101100001100010110101111001101111001100001001011101011101111101100100 W"
b11001001111001110011101100000000110100000010111101100110101110001100101010000111001111011010100001001011111111110101101001100 .$
b11110110111001110101110001111000111101111101111111101100010010001101110010101111000000001011100100010101111101110111111001111 R%
#129
b11111110001111110011101001001000110011010110111100111001111100001100000010110111001100111001000011001001111101110011111001010 W"
b11000000000101110011111001111000110011100111011101100011100100001100010110101111001101111001100011001001101011101111101100010 .$
b11110010100001110100101111001000111100111011011101011000010000000111011001101110010100110010100011101001111111110101000001110 R%
#130
b11111011001001110010010010101000111011000101011100110101010100001011101110011111001011100110000011111001111001111010111110111 W"
b11111011001001000001000010101000110011010101011110110101010100001001000010110111001100111001000011111001111101110011111001111 .$
b11011110010011110100010010011000110111111011111101010010111100001101001111011111000000101001000011111101111111110100100001111 R%
